# This file uses centimeters as units for non-parametric coordinates.

mtllib liz_icesheet_UVs.mtl
g default
v -7.286505 1.000000 -2.409118
v -7.179168 -1.000000 -3.271450
v -4.070075 1.000000 -6.946057
v -5.239351 -1.000000 -7.311296
v -9.101315 1.000000 -5.005635
v -8.598939 -1.000000 -5.302769
v -6.179769 -1.000000 -7.605049
v -7.024297 -1.000000 -7.135666
v -7.108340 1.000000 -7.325478
v -6.452210 1.000000 -7.690150
v -4.217713 1.000000 -2.102222
v -3.685059 -1.000000 -2.922021
v -3.489310 -1.000000 -3.223294
v -2.878701 1.000000 -4.163070
vt 0.759680 0.438062
vt 0.745651 0.515173
vt 0.706120 0.444545
vt 0.695145 0.504871
vt 0.606491 0.258928
vt 0.561143 0.219970
vt 0.656747 0.223801
vt 0.665392 0.137353
vt 0.657938 0.132510
vt 0.549530 0.199076
vt 0.556797 0.175809
vt 0.791203 0.607096
vt 0.739696 0.630852
vt 0.779517 0.533115
vt 0.722531 0.522180
vt 0.767907 0.823069
vt 0.759997 0.747817
vt 0.815903 0.804274
vt 0.809654 0.744817
vt 0.136959 0.293999
vt 0.072719 0.249099
vt 0.194354 0.244691
vt 0.065126 0.173175
vt 0.116113 0.140046
vt 0.203377 0.228458
vt 0.184967 0.169522
vt 0.807990 0.720970
vt 0.758704 0.729290
vt 0.807369 0.696603
vt 0.757131 0.667566
vt 0.749782 0.362404
vt 0.694851 0.358401
vt 0.738998 0.639714
vt 0.786428 0.667713
vn -0.786996 -0.279406 0.550063
vn -0.786996 -0.279405 0.550063
vn -0.786996 -0.279406 0.550063
vn -0.786996 -0.279406 0.550063
vn -0.786996 -0.279405 0.550063
vn -0.786996 -0.279405 0.550063
vn 0.000000 -1.000000 0.000000
vn 0.000000 -1.000000 0.000000
vn 0.000000 -1.000000 0.000000
vn 0.000000 -1.000000 0.000000
vn 0.000000 -1.000000 0.000000
vn 0.000000 -1.000000 0.000000
vn 0.000000 -1.000000 0.000000
vn 0.000000 -1.000000 0.000000
vn 0.000000 -1.000000 0.000000
vn 0.000000 -1.000000 0.000000
vn 0.000000 -1.000000 0.000000
vn 0.000000 -1.000000 0.000000
vn 0.000000 -1.000000 0.000000
vn 0.000000 -1.000000 0.000000
vn 0.000000 -1.000000 0.000000
vn 0.833402 -0.422084 -0.356772
vn 0.833402 -0.422084 -0.356773
vn 0.833402 -0.422085 -0.356772
vn 0.833402 -0.422085 -0.356772
vn 0.833402 -0.422084 -0.356773
vn 0.833402 -0.422084 -0.356773
vn -0.755213 -0.093310 -0.648803
vn -0.755213 -0.093310 -0.648803
vn -0.755213 -0.093310 -0.648804
vn -0.755213 -0.093310 -0.648804
vn -0.755213 -0.093310 -0.648803
vn -0.755213 -0.093310 -0.648804
vn 0.000000 1.000000 0.000000
vn 0.000000 1.000000 0.000000
vn 0.000000 1.000000 0.000000
vn 0.000000 1.000000 0.000000
vn 0.000000 1.000000 0.000000
vn 0.000000 1.000000 0.000000
vn 0.000000 1.000000 0.000000
vn 0.000000 1.000000 0.000000
vn 0.000000 1.000000 0.000000
vn 0.000000 1.000000 0.000000
vn 0.000000 1.000000 0.000000
vn 0.000000 1.000000 0.000000
vn 0.000000 1.000000 0.000000
vn 0.000000 1.000000 0.000000
vn 0.000000 1.000000 0.000000
vn 0.298157 0.000000 -0.954517
vn 0.298157 0.000000 -0.954517
vn 0.298157 0.000000 -0.954517
vn 0.298157 0.000000 -0.954517
vn 0.298157 0.000000 -0.954517
vn 0.298157 0.000000 -0.954517
vn -0.483227 -0.102820 -0.869437
vn -0.483227 -0.102820 -0.869437
vn -0.483227 -0.102820 -0.869437
vn -0.483227 -0.102820 -0.869437
vn -0.483227 -0.102820 -0.869437
vn -0.483227 -0.102820 -0.869437
vn -0.091271 -0.398405 0.912657
vn -0.091271 -0.398405 0.912657
vn -0.091271 -0.398405 0.912657
vn -0.091271 -0.398405 0.912657
vn -0.091271 -0.398405 0.912657
vn -0.091271 -0.398405 0.912657
vn 0.838544 -0.000000 0.544834
vn 0.838544 0.000000 0.544834
vn 0.838544 0.000000 0.544834
vn 0.838544 0.000000 0.544834
vn 0.838544 0.000000 0.544834
vn 0.838544 0.000000 0.544834
s off
g liz_icesheet_UVs:g_0group2
usemtl liz_icesheet_UVs:initialShadingGroup
f 1/1/1 5/2/2 2/3/3
f 2/3/4 5/2/5 6/4/6
f 6/5/7 8/6/8 2/7/9
f 2/7/10 8/6/11 12/8/12
f 12/8/13 8/6/14 13/9/15
f 8/6/16 7/10/17 13/9/18
f 4/11/19 13/9/20 7/10/21
f 14/12/22 13/13/23 3/14/24
f 3/14/25 13/13/26 4/15/27
f 5/16/28 9/17/29 6/18/30
f 6/18/31 9/17/32 8/19/33
f 5/20/34 1/21/35 9/22/36
f 1/21/37 11/23/38 9/22/39
f 11/23/40 14/24/41 9/22/42
f 9/22/43 14/24/44 10/25/45
f 10/25/46 14/24/47 3/26/48
f 7/27/49 10/28/50 4/29/51
f 4/29/52 10/28/53 3/30/54
f 7/27/55 8/19/56 10/28/57
f 10/28/58 8/19/59 9/17/60
f 1/1/61 2/3/62 11/31/63
f 11/31/64 2/3/65 12/32/66
f 12/33/67 13/13/68 11/34/69
f 11/34/70 13/13/71 14/12/72
g default
v -7.496761 -1.000000 2.249272
v -7.841363 -1.000000 6.568788
v -7.501845 1.000000 6.566567
v -7.151390 1.000000 2.173681
v -2.747290 -1.000000 1.209762
v -2.524736 -1.000000 1.405166
v -2.440887 -1.000000 3.692846
v -6.562378 -1.000000 7.496658
v -7.437756 1.000000 6.613062
v -2.574512 1.000000 2.124670
v -3.443094 1.000000 1.362052
v -2.497466 0.886949 2.149176
vt 0.117026 0.741944
vt 0.167121 0.738855
vt 0.125164 0.848843
vt 0.175397 0.847570
vt 0.124449 0.443045
vt 0.092806 0.420089
vt 0.226419 0.348936
vt 0.101332 0.313220
vt 0.218839 0.287502
vt 0.224345 0.292336
vt 0.238948 0.568645
vt 0.217461 0.587515
vt 0.118612 0.457614
vt 0.117026 0.458764
vt 0.125712 0.567447
vt 0.103478 0.507332
vt 0.046776 0.523179
vt 0.060327 0.351612
vt 0.056900 0.352068
vt 0.009766 0.387952
vt 0.167265 0.736902
vt 0.119904 0.702956
vt 0.913792 0.432062
vt 0.914347 0.552349
vt 0.864392 0.449913
vt 0.864825 0.543830
vt 0.014075 0.328392
vt 0.068595 0.324520
vt 0.016172 0.321212
vn -0.982874 0.166764 -0.078412
vn -0.982874 0.166764 -0.078412
vn -0.982874 0.166764 -0.078412
vn -0.982874 0.166765 -0.078412
vn -0.982874 0.166765 -0.078412
vn -0.982874 0.166765 -0.078412
vn 0.000000 -1.000000 0.000000
vn 0.000000 -1.000000 0.000000
vn 0.000000 -1.000000 0.000000
vn 0.000000 -1.000000 0.000000
vn 0.000000 -1.000000 0.000000
vn 0.000000 -1.000000 0.000000
vn 0.000000 -1.000000 0.000000
vn 0.000000 -1.000000 0.000000
vn 0.000000 -1.000000 0.000000
vn 0.000000 -1.000000 0.000000
vn 0.000000 -1.000000 0.000000
vn 0.000000 -1.000000 0.000000
vn 0.000000 1.000000 0.000000
vn 0.000000 1.000000 0.000000
vn 0.000000 1.000000 0.000000
vn 0.000000 1.000000 0.000000
vn 0.000000 1.000000 0.000000
vn 0.000000 1.000000 0.000000
vn 0.000000 1.000000 0.000000
vn 0.000000 1.000000 0.000000
vn 0.000000 1.000000 0.000000
vn 0.576030 0.527865 0.624138
vn 0.576030 0.527865 0.624138
vn 0.576030 0.527865 0.624138
vn 0.576030 0.527865 0.624138
vn 0.576030 0.527865 0.624138
vn 0.576030 0.527865 0.624138
vn 0.576030 0.527865 0.624138
vn 0.576030 0.527865 0.624138
vn 0.576030 0.527865 0.624138
vn -0.584273 0.100080 0.805362
vn -0.584271 0.100080 0.805364
vn -0.584274 0.100078 0.805363
vn -0.584271 0.100080 0.805364
vn -0.584271 0.100079 0.805364
vn -0.584274 0.100078 0.805363
vn -0.213807 0.000000 -0.976876
vn -0.213807 0.000000 -0.976876
vn -0.213807 0.000000 -0.976876
vn -0.213807 0.000000 -0.976876
vn -0.213807 0.000000 -0.976876
vn -0.213807 0.000000 -0.976876
vn 0.999329 0.000000 -0.036628
vn 0.999329 0.000000 -0.036628
vn 0.999329 0.000000 -0.036628
vn 0.634221 0.275650 -0.722344
vn 0.634221 0.275650 -0.722344
vn 0.634221 0.275650 -0.722344
vn 0.634221 0.275650 -0.722344
vn 0.634221 0.275650 -0.722344
vn 0.634221 0.275650 -0.722344
vn 0.634221 0.275650 -0.722344
vn 0.634221 0.275650 -0.722344
vn 0.634221 0.275650 -0.722344
s off
g liz_icesheet_UVs:g_3
usemtl liz_icesheet_UVs:initialShadingGroup
f 16/35/73 17/36/74 15/37/75
f 15/37/76 17/36/77 18/38/78
f 22/39/79 16/40/80 21/41/81
f 16/40/82 15/42/83 21/41/84
f 15/42/85 19/43/86 21/41/87
f 19/43/88 20/44/89 21/41/90
f 24/45/91 25/46/92 23/47/93
f 23/47/94 25/46/95 17/48/96
f 18/49/97 17/48/98 25/46/99
f 23/50/100 22/51/101 24/52/102
f 24/52/103 22/51/104 26/53/105
f 26/53/106 22/51/107 21/54/108
f 17/36/109 16/35/110 23/55/111
f 16/35/112 22/56/113 23/55/114
f 19/57/115 15/58/116 25/59/117
f 25/59/118 15/58/119 18/60/120
f 21/54/121 20/61/122 26/53/123
f 25/62/124 24/52/125 19/63/126
f 24/52/127 26/53/128 19/63/129
f 20/61/130 19/63/131 26/53/132
g default
v 6.706486 -1.000000 -2.559101
v 7.123289 -1.000000 0.368710
v 6.923398 -1.000000 0.740173
v 3.711564 -1.000000 1.403458
v 1.987867 -1.000000 -0.136922
v 2.324168 -1.000000 -2.808181
v 3.872161 -1.000000 -3.488081
v 7.114025 1.000000 -2.425525
v 7.460803 1.000000 0.010393
v 6.611256 1.000000 1.589134
v 3.872160 1.000000 -3.488081
v 2.324168 1.000000 -2.808181
v 1.883031 1.000000 0.695791
v 3.582581 1.000000 2.214593
vt 0.527533 0.294395
vt 0.599970 0.284082
vt 0.504549 0.364518
vt 0.521371 0.402817
vt 0.587460 0.411137
vt 0.609160 0.289028
vt 0.625571 0.368492
vt 0.946088 0.563133
vt 0.949001 0.623938
vt 0.895532 0.560857
vt 0.899033 0.633940
vt 0.898664 0.644370
vt 0.947431 0.668266
vt 0.436748 0.422675
vt 0.356541 0.448964
vt 0.445327 0.362408
vt 0.424308 0.323349
vt 0.349376 0.307874
vt 0.307328 0.345451
vt 0.318242 0.432142
vt 0.067692 0.972611
vt 0.014363 0.968441
vt 0.063357 0.896220
vt 0.009766 0.887431
vt 0.775317 0.407320
vt 0.764051 0.351248
vt 0.824318 0.385446
vt 0.813210 0.330159
vt 0.776817 0.473915
vt 0.826287 0.472800
vt 0.914050 0.266970
vt 0.864568 0.267074
vt 0.913896 0.193176
vt 0.864392 0.182669
vt 0.914137 0.308800
vt 0.864656 0.308904
vn 0.000000 -1.000000 0.000000
vn 0.000000 -1.000000 0.000000
vn 0.000000 -1.000000 0.000000
vn 0.000000 -1.000000 0.000000
vn 0.000000 -1.000000 0.000000
vn 0.000000 -1.000000 0.000000
vn 0.000000 -1.000000 0.000000
vn 0.000000 -1.000000 0.000000
vn 0.000000 -1.000000 0.000000
vn 0.000000 -1.000000 0.000000
vn 0.000000 -1.000000 0.000000
vn 0.000000 -1.000000 0.000000
vn 0.000000 -1.000000 0.000000
vn 0.000000 -1.000000 0.000000
vn 0.000000 -1.000000 0.000000
vn 0.972202 -0.188862 -0.138403
vn 0.972202 -0.188862 -0.138403
vn 0.972202 -0.188862 -0.138403
vn 0.972202 -0.188862 -0.138403
vn 0.972202 -0.188862 -0.138403
vn 0.972202 -0.188862 -0.138403
vn 0.878816 -0.063581 0.472906
vn 0.878816 -0.063581 0.472906
vn 0.878816 -0.063581 0.472906
vn 0.878816 -0.063581 0.472906
vn 0.878816 -0.063581 0.472906
vn 0.878816 -0.063581 0.472906
vn 0.000000 1.000000 0.000000
vn 0.000000 1.000000 0.000000
vn 0.000000 1.000000 0.000000
vn 0.000000 1.000000 0.000000
vn 0.000000 1.000000 0.000000
vn 0.000000 1.000000 0.000000
vn 0.000000 1.000000 0.000000
vn 0.000000 1.000000 0.000000
vn 0.000000 1.000000 0.000000
vn 0.000000 1.000000 0.000000
vn 0.000000 1.000000 0.000000
vn 0.000000 1.000000 0.000000
vn 0.000000 1.000000 0.000000
vn 0.000000 1.000000 0.000000
vn 0.000000 1.000000 0.000000
vn 0.188794 -0.358595 0.914203
vn 0.188795 -0.358595 0.914203
vn 0.188794 -0.358595 0.914203
vn 0.188794 -0.358595 0.914203
vn 0.188795 -0.358595 0.914203
vn 0.188794 -0.358595 0.914203
vn -0.629836 -0.326459 0.704791
vn -0.629836 -0.326459 0.704791
vn -0.629836 -0.326459 0.704791
vn -0.629836 -0.326459 0.704791
vn -0.629836 -0.326459 0.704791
vn -0.629836 -0.326459 0.704791
vn -0.992168 0.000000 -0.124910
vn -0.992168 0.000000 -0.124910
vn -0.992168 0.000000 -0.124910
vn -0.992168 0.000000 -0.124910
vn -0.992168 0.000000 -0.124910
vn -0.992168 0.000000 -0.124910
vn 0.311458 0.000000 -0.950260
vn 0.311458 0.000000 -0.950260
vn 0.311458 0.000000 -0.950260
vn 0.311458 0.000000 -0.950260
vn 0.311458 0.000000 -0.950260
vn 0.311458 0.000000 -0.950260
vn -0.402136 0.000000 -0.915580
vn -0.402136 0.000000 -0.915580
vn -0.402136 0.000000 -0.915580
vn -0.402136 0.000000 -0.915580
vn -0.402136 0.000000 -0.915580
vn -0.402136 0.000000 -0.915580
s off
g liz_icesheet_UVs:g_6
usemtl liz_icesheet_UVs:initialShadingGroup
f 27/64/133 28/65/134 33/66/135
f 33/66/136 28/65/137 32/67/138
f 32/67/139 28/65/140 31/68/141
f 28/65/142 29/69/143 31/68/144
f 29/69/145 30/70/146 31/68/147
f 34/71/148 35/72/149 27/73/150
f 27/73/151 35/72/152 28/74/153
f 28/74/154 35/72/155 29/75/156
f 29/75/157 35/72/158 36/76/159
f 34/77/160 37/78/161 35/79/162
f 35/79/163 37/78/164 36/80/165
f 36/80/166 37/78/167 40/81/168
f 40/81/169 37/78/170 39/82/171
f 37/78/172 38/83/173 39/82/174
f 40/84/175 30/85/176 36/86/177
f 36/86/178 30/85/179 29/87/180
f 31/88/181 30/89/182 39/90/183
f 39/90/184 30/89/185 40/91/186
f 32/92/187 31/88/188 38/93/189
f 38/93/190 31/88/191 39/90/192
f 33/94/193 37/95/194 27/96/195
f 27/96/196 37/95/197 34/97/198
f 33/94/199 32/98/200 37/95/201
f 37/95/202 32/98/203 38/99/204
g default
v -7.170677 -1.000000 -2.898063
v -8.755070 -1.000000 0.702039
v -8.436954 1.000000 0.597647
v -7.278014 1.000000 -2.035731
v -3.752089 -1.000000 -2.556185
v -2.908090 -1.000000 0.896908
v -7.598996 -1.000000 1.923599
v -4.284743 1.000000 -1.736388
v -3.603896 1.000000 1.049198
v -7.253624 1.000000 1.848008
vt 0.807249 0.620767
vt 0.798652 0.523834
vt 0.855098 0.595845
vt 0.848810 0.524941
vt 0.539620 0.030887
vt 0.565021 0.146945
vt 0.454187 0.051769
vt 0.445729 0.136348
vt 0.534799 0.175547
vt 0.438441 0.893041
vt 0.437399 0.978035
vt 0.384361 0.903473
vt 0.383448 0.977893
vt 0.896435 0.832880
vt 0.948072 0.852039
vt 0.892072 0.920720
vt 0.944553 0.922898
vt 0.645414 0.550375
vt 0.714332 0.567220
vt 0.625650 0.640673
vt 0.721738 0.641276
vt 0.656585 0.669949
vt 0.758181 0.924721
vt 0.708691 0.933419
vt 0.758273 0.832286
vt 0.708809 0.814614
vt 0.802498 0.482401
vt 0.852747 0.482531
vn -0.908264 0.123602 -0.399724
vn -0.908264 0.123602 -0.399724
vn -0.908264 0.123602 -0.399724
vn -0.908264 0.123602 -0.399724
vn -0.908264 0.123602 -0.399724
vn -0.908264 0.123602 -0.399724
vn 0.000000 -1.000000 0.000000
vn 0.000000 -1.000000 0.000000
vn 0.000000 -1.000000 0.000000
vn 0.000000 -1.000000 0.000000
vn 0.000000 -1.000000 0.000000
vn 0.000000 -1.000000 0.000000
vn 0.000000 -1.000000 0.000000
vn 0.000000 -1.000000 0.000000
vn 0.000000 -1.000000 0.000000
vn 0.091271 0.398405 -0.912657
vn 0.091271 0.398405 -0.912657
vn 0.091271 0.398405 -0.912657
vn 0.091271 0.398405 -0.912657
vn 0.091271 0.398405 -0.912657
vn 0.091271 0.398405 -0.912657
vn 0.915134 0.335409 -0.223675
vn 0.915134 0.335409 -0.223675
vn 0.915134 0.335409 -0.223675
vn 0.915134 0.335409 -0.223675
vn 0.915134 0.335409 -0.223675
vn 0.915134 0.335409 -0.223675
vn 0.000000 1.000000 0.000000
vn 0.000000 1.000000 0.000000
vn 0.000000 1.000000 0.000000
vn 0.000000 1.000000 0.000000
vn 0.000000 1.000000 0.000000
vn 0.000000 1.000000 0.000000
vn 0.000000 1.000000 0.000000
vn 0.000000 1.000000 0.000000
vn 0.000000 1.000000 0.000000
vn 0.213807 0.000000 0.976876
vn 0.213807 0.000000 0.976876
vn 0.213807 0.000000 0.976876
vn 0.213807 0.000000 0.976876
vn 0.213807 0.000000 0.976876
vn 0.213807 0.000000 0.976876
vn -0.718123 0.149697 0.679625
vn -0.718123 0.149697 0.679625
vn -0.718123 0.149697 0.679625
vn -0.718123 0.149697 0.679625
vn -0.718123 0.149697 0.679625
vn -0.718123 0.149697 0.679625
s off
g liz_icesheet_UVs:g_7
usemtl liz_icesheet_UVs:initialShadingGroup
f 41/100/205 42/101/206 44/102/207
f 44/102/208 42/101/209 43/103/210
f 46/104/211 47/105/212 45/106/213
f 45/106/214 47/105/215 41/107/216
f 41/107/217 47/105/218 42/108/219
f 45/109/220 41/110/221 48/111/222
f 48/111/223 41/110/224 44/112/225
f 45/113/226 48/114/227 46/115/228
f 46/115/229 48/114/230 49/116/231
f 49/117/232 48/118/233 50/119/234
f 48/118/235 44/120/236 50/119/237
f 44/120/238 43/121/239 50/119/240
f 50/122/241 47/123/242 49/124/243
f 49/124/244 47/123/245 46/125/246
f 42/101/247 47/126/248 43/103/249
f 43/103/250 47/126/251 50/127/252
g default
v -6.106225 -1.000000 7.620415
v -6.373688 -0.813905 7.709872
v -7.167614 1.000000 6.908493
v -2.354789 1.000000 2.466634
v -2.294820 -1.000000 4.102787
v -1.897510 -1.000000 7.273646
v -2.369566 1.000000 8.037114
v -6.316023 1.000000 8.362275
v -0.614623 1.000000 5.198801
v -1.098405 -1.000000 5.981232
vt 0.378158 0.199894
vt 0.335008 0.152698
vt 0.442033 0.050979
vt 0.385593 0.034769
vt 0.393083 0.031057
vt 0.186227 0.797181
vt 0.239021 0.809609
vt 0.187739 0.901651
vt 0.240439 0.907569
vt 0.192732 0.908356
vt 0.632554 0.739836
vt 0.622455 0.821777
vt 0.580660 0.756372
vt 0.576061 0.793683
vt 0.682505 0.226944
vt 0.714480 0.246714
vt 0.636030 0.256544
vt 0.723060 0.350842
vt 0.622504 0.660326
vt 0.573750 0.701706
vt 0.155630 0.052819
vt 0.045733 0.171893
vt 0.088033 0.009766
vt 0.017811 0.053184
vt 0.009766 0.150823
vt 0.435783 0.009766
vn -0.576030 -0.527865 -0.624138
vn -0.576030 -0.527865 -0.624138
vn -0.576030 -0.527865 -0.624138
vn -0.576030 -0.527865 -0.624138
vn -0.576030 -0.527865 -0.624138
vn -0.576030 -0.527865 -0.624138
vn -0.576030 -0.527865 -0.624138
vn -0.576033 -0.527864 -0.624136
vn -0.576030 -0.527865 -0.624138
vn 0.077235 -0.339605 0.937392
vn 0.077235 -0.339605 0.937392
vn 0.077235 -0.339605 0.937392
vn 0.077235 -0.339605 0.937392
vn 0.077235 -0.339605 0.937392
vn 0.077235 -0.339605 0.937392
vn 0.077235 -0.339605 0.937392
vn 0.077235 -0.339605 0.937392
vn 0.077235 -0.339605 0.937392
vn 0.850548 -0.000000 0.525898
vn 0.850548 -0.000000 0.525898
vn 0.850548 -0.000000 0.525898
vn 0.850548 -0.000000 0.525898
vn 0.850548 -0.000000 0.525898
vn 0.850548 -0.000000 0.525898
vn 0.000000 -1.000000 0.000000
vn 0.000000 -1.000000 0.000000
vn 0.000000 -1.000000 0.000000
vn 0.000000 -1.000000 0.000000
vn 0.000000 -1.000000 0.000000
vn 0.000000 -1.000000 0.000000
vn 0.779253 -0.382663 -0.496320
vn 0.779253 -0.382663 -0.496320
vn 0.779253 -0.382663 -0.496320
vn 0.779253 -0.382663 -0.496320
vn 0.779253 -0.382663 -0.496320
vn 0.779253 -0.382663 -0.496320
vn 0.000000 1.000000 0.000000
vn 0.000000 1.000000 0.000000
vn 0.000000 1.000000 0.000000
vn 0.000000 1.000000 0.000000
vn 0.000000 1.000000 0.000000
vn 0.000000 1.000000 0.000000
vn 0.000000 1.000000 0.000000
vn 0.000000 1.000000 0.000000
vn 0.000000 1.000000 0.000000
vn -0.852760 -0.152554 0.499527
vn -0.852760 -0.152554 0.499527
vn -0.852760 -0.152554 0.499527
s off
g liz_icesheet_UVs:g_10
usemtl liz_icesheet_UVs:initialShadingGroup
f 54/128/253 55/129/254 53/130/255
f 55/129/256 51/131/257 53/130/258
f 51/131/259 52/132/260 53/130/261
f 56/133/262 57/134/263 51/135/264
f 58/136/265 52/137/266 57/134/267
f 51/135/268 57/134/269 52/137/270
f 59/138/271 57/139/272 60/140/273
f 60/140/274 57/139/275 56/141/276
f 60/142/277 56/143/278 55/144/279
f 55/144/280 56/143/281 51/145/282
f 54/146/283 59/138/284 55/147/285
f 55/147/286 59/138/287 60/140/288
f 54/148/289 53/149/290 59/150/291
f 59/150/292 53/149/293 57/151/294
f 53/149/295 58/152/296 57/151/297
f 53/130/298 52/132/299 58/153/300
g default
v 4.391349 -1.000000 -7.168355
v 3.714021 -1.000000 -3.789973
v 2.186173 -1.000000 -3.118920
v 0.749696 -1.000000 -4.113257
v 1.053522 -1.000000 -7.945864
v 2.118308 -1.000000 -8.738423
v 2.309291 1.000000 -8.880580
v 4.439614 1.000000 -7.409091
v -0.145559 1.000000 -4.732958
v 0.049922 1.000000 -7.198848
v 3.714021 1.000000 -3.789973
v 2.186172 1.000000 -3.118920
vt 0.448449 0.573196
vt 0.504686 0.612041
vt 0.422105 0.592805
vt 0.414589 0.687627
vt 0.450128 0.712228
vt 0.487929 0.695626
vt 0.391577 0.602590
vt 0.399466 0.666160
vt 0.341928 0.606848
vt 0.350346 0.674677
vt 0.331334 0.596021
vt 0.329028 0.657177
vt 0.277193 0.580437
vt 0.273609 0.675489
vt 0.403988 0.757370
vt 0.354567 0.759820
vt 0.392284 0.593775
vt 0.336385 0.552168
vt 0.444990 0.557369
vt 0.427038 0.467829
vt 0.331548 0.491159
vt 0.389237 0.451226
vt 0.265808 0.707389
vt 0.312473 0.724866
vt 0.316141 0.527524
vt 0.267833 0.538239
vt 0.310788 0.010653
vt 0.352064 0.009766
vt 0.311852 0.060124
vt 0.353128 0.059236
vn 0.000000 -1.000000 0.000000
vn 0.000000 -1.000000 0.000000
vn 0.000000 -1.000000 0.000000
vn 0.000000 -1.000000 0.000000
vn 0.000000 -1.000000 0.000000
vn 0.000000 -1.000000 0.000000
vn 0.000000 -1.000000 0.000000
vn 0.000000 -1.000000 0.000000
vn 0.000000 -1.000000 0.000000
vn 0.000000 -1.000000 0.000000
vn 0.000000 -1.000000 0.000000
vn 0.000000 -1.000000 0.000000
vn 0.564756 -0.112044 -0.817616
vn 0.564756 -0.112044 -0.817616
vn 0.564756 -0.112044 -0.817616
vn 0.564756 -0.112044 -0.817616
vn 0.564756 -0.112044 -0.817616
vn 0.564756 -0.112044 -0.817617
vn -0.901945 -0.425890 -0.071501
vn -0.901945 -0.425890 -0.071501
vn -0.901945 -0.425890 -0.071501
vn -0.901945 -0.425890 -0.071501
vn -0.901945 -0.425890 -0.071501
vn -0.901945 -0.425890 -0.071501
vn 0.980488 0.000000 0.196577
vn 0.980488 0.000000 0.196577
vn 0.980488 0.000000 0.196577
vn 0.980488 0.000000 0.196577
vn 0.980488 0.000000 0.196577
vn 0.980488 0.000000 0.196577
vn 0.000000 1.000000 0.000000
vn 0.000000 1.000000 0.000000
vn 0.000000 1.000000 0.000000
vn 0.000000 1.000000 0.000000
vn 0.000000 1.000000 0.000000
vn 0.000000 1.000000 0.000000
vn 0.000000 1.000000 0.000000
vn 0.000000 1.000000 0.000000
vn 0.000000 1.000000 0.000000
vn 0.000000 1.000000 0.000000
vn 0.000000 1.000000 0.000000
vn 0.000000 1.000000 0.000000
vn -0.597089 0.000000 -0.802175
vn -0.597089 0.000000 -0.802175
vn -0.597089 0.000000 -0.802175
vn -0.597089 0.000000 -0.802175
vn -0.597089 0.000000 -0.802175
vn -0.597089 0.000000 -0.802175
vn -0.569153 0.000000 0.822232
vn -0.569153 0.000000 0.822232
vn -0.569153 0.000000 0.822232
vn -0.569153 0.000000 0.822232
vn -0.569153 0.000000 0.822232
vn -0.569153 0.000000 0.822232
vn 0.402136 -0.000000 0.915580
vn 0.402136 -0.000000 0.915580
vn 0.402136 -0.000000 0.915580
vn 0.402136 -0.000000 0.915580
vn 0.402136 -0.000000 0.915580
vn 0.402136 -0.000000 0.915580
s off
g liz_icesheet_UVs:g_11
usemtl liz_icesheet_UVs:initialShadingGroup
f 66/154/301 61/155/302 65/156/303
f 65/156/304 61/155/305 64/157/306
f 64/157/307 61/155/308 63/158/309
f 61/155/310 62/159/311 63/158/312
f 67/160/313 68/161/314 66/162/315
f 66/162/316 68/161/317 61/163/318
f 69/164/319 70/165/320 64/166/321
f 64/166/322 70/165/323 65/167/324
f 68/161/325 71/168/326 61/163/327
f 61/163/328 71/168/329 62/169/330
f 67/170/331 70/171/332 68/172/333
f 68/172/334 70/171/335 71/173/336
f 70/171/337 69/174/338 71/173/339
f 69/174/340 72/175/341 71/173/342
f 66/176/343 65/167/344 67/177/345
f 67/177/346 65/167/347 70/165/348
f 69/164/349 64/166/350 72/178/351
f 72/178/352 64/166/353 63/179/354
f 63/180/355 62/181/356 72/182/357
f 72/182/358 62/181/359 71/183/360
g default
v -0.516412 1.000000 -4.810030
v -2.561596 1.000000 -4.375319
v -3.172205 -1.000000 -3.435542
v 0.378843 -1.000000 -4.190331
v 0.672438 -1.000000 -7.893878
v -0.331161 1.000000 -7.146863
v -2.304053 1.000000 -7.934689
v -3.688646 1.000000 -7.008048
v -4.857921 -1.000000 -7.373287
v -2.304053 -1.000000 -9.082466
vt 0.639167 0.895153
vt 0.637839 0.946866
vt 0.586436 0.875315
vt 0.584130 0.965104
vt 0.770971 0.836333
vt 0.826750 0.853518
vt 0.776295 0.928095
vt 0.830109 0.911417
vt 0.009766 0.859092
vt 0.037650 0.793956
vt 0.044022 0.882018
vt 0.092833 0.862527
vt 0.088250 0.804711
vt 0.601430 0.474270
vt 0.638305 0.374917
vt 0.659453 0.474801
vt 0.684107 0.408374
vt 0.383448 0.213324
vt 0.446633 0.171037
vt 0.425155 0.310747
vt 0.513011 0.292073
vt 0.520275 0.200444
vt 0.921478 0.175460
vt 0.919752 0.122930
vt 0.977864 0.184145
vt 0.975261 0.104892
vt 0.672605 0.513866
vt 0.625688 0.546326
vn 0.193294 0.368299 0.909392
vn 0.193294 0.368299 0.909392
vn 0.193294 0.368299 0.909392
vn 0.193295 0.368299 0.909392
vn 0.193295 0.368299 0.909392
vn 0.193295 0.368299 0.909392
vn 0.901945 0.425890 0.071501
vn 0.901945 0.425890 0.071501
vn 0.901945 0.425890 0.071501
vn 0.901945 0.425890 0.071501
vn 0.901945 0.425890 0.071501
vn 0.901945 0.425890 0.071501
vn 0.000000 1.000000 0.000000
vn 0.000000 1.000000 0.000000
vn 0.000000 1.000000 0.000000
vn 0.000000 1.000000 0.000000
vn 0.000000 1.000000 0.000000
vn 0.000000 1.000000 0.000000
vn 0.000000 1.000000 0.000000
vn 0.000000 1.000000 0.000000
vn 0.000000 1.000000 0.000000
vn -0.833402 0.422084 0.356772
vn -0.833402 0.422084 0.356772
vn -0.833402 0.422084 0.356773
vn -0.833402 0.422084 0.356773
vn -0.833402 0.422084 0.356772
vn -0.833402 0.422084 0.356772
vn 0.000000 -1.000000 0.000000
vn 0.000000 -1.000000 0.000000
vn 0.000000 -1.000000 0.000000
vn 0.000000 -1.000000 0.000000
vn 0.000000 -1.000000 0.000000
vn 0.000000 -1.000000 0.000000
vn 0.000000 -1.000000 0.000000
vn 0.000000 -1.000000 0.000000
vn 0.000000 -1.000000 0.000000
vn 0.327271 0.470336 -0.819560
vn 0.327271 0.470336 -0.819560
vn 0.327271 0.470336 -0.819560
vn 0.327271 0.470336 -0.819560
vn 0.327271 0.470336 -0.819560
vn 0.327271 0.470336 -0.819560
vn -0.502013 0.430481 -0.750112
vn -0.502013 0.430481 -0.750112
vn -0.502013 0.430481 -0.750112
vn -0.502013 0.430481 -0.750112
vn -0.502013 0.430481 -0.750112
vn -0.502013 0.430481 -0.750112
s off
g liz_icesheet_UVs:g_12
usemtl liz_icesheet_UVs:initialShadingGroup
f 73/184/361 74/185/362 76/186/363
f 76/186/364 74/185/365 75/187/366
f 77/188/367 78/189/368 76/190/369
f 76/190/370 78/189/371 73/191/372
f 80/192/373 74/193/374 79/194/375
f 79/194/376 74/193/377 78/195/378
f 74/193/379 73/196/380 78/195/381
f 81/197/382 75/198/383 80/199/384
f 80/199/385 75/198/386 74/200/387
f 81/201/388 82/202/389 75/203/390
f 75/203/391 82/202/392 76/204/393
f 82/202/394 77/205/395 76/204/396
f 79/206/397 78/207/398 82/208/399
f 82/208/400 78/207/401 77/209/402
f 79/210/403 82/211/404 80/199/405
f 80/199/406 82/211/407 81/197/408
g default
v 3.808749 -1.000000 1.755297
v 3.679767 1.000000 2.566432
v 6.622309 1.000000 1.958760
v 6.934450 -1.000000 1.109800
v 3.194333 -1.000000 5.619182
v 3.372389 1.000000 4.499438
v 7.187873 1.000000 5.792966
v 7.246353 1.000000 3.132663
v 7.385231 0.566898 6.115428
v 8.138268 -1.000000 5.506879
v 8.183286 -1.000000 3.459012
v 6.958244 -1.000000 6.895226
vt 0.916292 0.759455
vt 0.918160 0.685141
vt 0.969463 0.753605
vt 0.971447 0.674665
vt 0.906411 0.317661
vt 0.955747 0.345967
vt 0.905912 0.414456
vt 0.955498 0.394391
vt 0.009766 0.690741
vt 0.075584 0.689294
vt 0.041769 0.785139
vt 0.089593 0.777534
vt 0.104627 0.704733
vt 0.559178 0.697468
vt 0.559908 0.763298
vt 0.504549 0.705637
vt 0.548147 0.771298
vt 0.505111 0.756312
vt 0.891369 0.723173
vt 0.834526 0.725202
vt 0.879556 0.624200
vt 0.866516 0.618519
vt 0.822872 0.627566
vt 0.179307 0.494060
vt 0.194509 0.398464
vt 0.272429 0.525631
vt 0.271841 0.382494
vt 0.301624 0.491282
vt 0.302738 0.440616
vt 0.565186 0.665129
vt 0.516573 0.640920
vt 0.514407 0.800423
vn -0.188794 0.358595 -0.914203
vn -0.188794 0.358595 -0.914203
vn -0.188794 0.358595 -0.914203
vn -0.188794 0.358595 -0.914203
vn -0.188794 0.358595 -0.914203
vn -0.188794 0.358595 -0.914203
vn -0.987592 0.000000 -0.157042
vn -0.987592 0.000000 -0.157042
vn -0.987592 0.000000 -0.157042
vn -0.987592 0.000000 -0.157042
vn -0.987592 0.000000 -0.157042
vn -0.987592 0.000000 -0.157042
vn 0.000000 1.000000 0.000000
vn 0.000000 1.000000 0.000000
vn 0.000000 1.000000 0.000000
vn 0.000000 1.000000 0.000000
vn 0.000000 1.000000 0.000000
vn 0.000000 1.000000 0.000000
vn 0.000000 1.000000 0.000000
vn 0.000000 1.000000 0.000000
vn 0.000000 1.000000 0.000000
vn 0.904129 0.426797 0.019875
vn 0.904129 0.426797 0.019875
vn 0.904129 0.426797 0.019875
vn 0.904129 0.426797 0.019875
vn 0.904129 0.426797 0.019876
vn 0.904129 0.426797 0.019875
vn 0.904129 0.426797 0.019876
vn 0.904129 0.426797 0.019875
vn 0.904129 0.426797 0.019875
vn -0.280278 0.487815 0.826729
vn -0.280278 0.487815 0.826729
vn -0.280278 0.487815 0.826729
vn -0.280278 0.487815 0.826729
vn -0.280278 0.487815 0.826729
vn -0.280278 0.487815 0.826729
vn -0.280278 0.487815 0.826729
vn -0.280278 0.487815 0.826729
vn -0.280278 0.487815 0.826729
vn 0.000000 -1.000000 0.000000
vn 0.000000 -1.000000 0.000000
vn 0.000000 -1.000000 0.000000
vn 0.000000 -1.000000 0.000000
vn 0.000000 -1.000000 0.000000
vn 0.000000 -1.000000 0.000000
vn 0.000000 -1.000000 0.000000
vn 0.000000 -1.000000 0.000000
vn 0.000000 -1.000000 0.000000
vn 0.000000 -1.000000 0.000000
vn 0.000000 -1.000000 0.000000
vn 0.000000 -1.000000 0.000000
vn 0.836737 0.319402 -0.444807
vn 0.836737 0.319402 -0.444807
vn 0.836737 0.319402 -0.444807
vn 0.836737 0.319402 -0.444807
vn 0.836737 0.319402 -0.444807
vn 0.836737 0.319402 -0.444808
vn 0.756998 0.113920 0.643410
vn 0.756998 0.113920 0.643410
vn 0.756998 0.113920 0.643410
s off
g liz_icesheet_UVs:g_17
usemtl liz_icesheet_UVs:initialShadingGroup
f 84/212/409 85/213/410 83/214/411
f 83/214/412 85/213/413 86/215/414
f 87/216/415 88/217/416 83/218/417
f 83/218/418 88/217/419 84/219/420
f 89/220/421 90/221/422 88/222/423
f 88/222/424 90/221/425 84/223/426
f 84/223/427 90/221/428 85/224/429
f 90/225/430 89/226/431 93/227/432
f 89/226/433 91/228/434 93/227/435
f 91/228/436 92/229/437 93/227/438
f 88/230/439 87/231/440 89/232/441
f 89/232/442 87/231/443 91/233/444
f 87/231/445 94/234/446 91/233/447
f 87/235/448 83/236/449 94/237/450
f 83/236/451 86/238/452 94/237/453
f 94/237/454 86/238/455 92/239/456
f 86/238/457 93/240/458 92/239/459
f 85/241/460 90/225/461 86/242/462
f 86/242/463 90/225/464 93/227/465
f 92/229/466 91/228/467 94/243/468
g default
v -3.191530 -1.000000 -3.057560
v -3.417935 -1.000000 -2.709103
v -3.950589 1.000000 -1.889305
v -2.580920 1.000000 -3.997336
v -0.361675 1.000000 -4.469045
v 0.533578 -1.000000 -3.849346
v 1.548099 1.000000 0.634219
v -2.292626 1.000000 1.901476
v -2.321530 -1.000000 1.112890
v 1.652935 -1.000000 -0.198495
v -3.223906 1.000000 1.083810
v 1.985990 1.000000 -2.843978
v -2.528101 -1.000000 0.931520
v 1.985991 -1.000000 -2.843978
vt 0.735557 0.287909
vt 0.786520 0.267021
vt 0.734882 0.298168
vt 0.782437 0.329084
vt 0.507418 0.931301
vt 0.452989 0.915338
vt 0.501039 0.837295
vt 0.449189 0.859334
vt 0.894052 0.426093
vt 0.840879 0.424571
vt 0.886681 0.326302
vt 0.833252 0.321306
vt 0.294589 0.042194
vt 0.305423 0.128248
vt 0.199566 0.010841
vt 0.247340 0.168453
vt 0.192434 0.156783
vt 0.176526 0.031071
vt 0.158547 0.104628
vt 0.727841 0.195506
vt 0.725991 0.188962
vt 0.780219 0.191561
vt 0.771879 0.162056
vt 0.529134 0.419234
vt 0.561579 0.517566
vt 0.463683 0.410993
vt 0.438809 0.446928
vt 0.557092 0.522676
vt 0.458398 0.539090
vt 0.467019 0.544692
vt 0.847023 0.312497
vt 0.798652 0.289263
vt 0.851398 0.225875
vt 0.801979 0.223379
vt 0.854961 0.155323
vt 0.804183 0.179731
vn -0.838545 -0.000001 -0.544833
vn -0.838545 -0.000001 -0.544833
vn -0.838545 -0.000001 -0.544833
vn -0.838544 0.000000 -0.544834
vn -0.838544 0.000000 -0.544834
vn -0.838544 0.000000 -0.544834
vn -0.193295 -0.368299 -0.909392
vn -0.193295 -0.368299 -0.909392
vn -0.193295 -0.368299 -0.909392
vn -0.193295 -0.368299 -0.909392
vn -0.193295 -0.368299 -0.909392
vn -0.193295 -0.368299 -0.909392
vn 0.293003 -0.354372 0.888015
vn 0.293003 -0.354372 0.888015
vn 0.293003 -0.354372 0.888014
vn 0.293003 -0.354372 0.888014
vn 0.293003 -0.354372 0.888015
vn 0.293003 -0.354372 0.888014
vn 0.000000 1.000000 0.000000
vn 0.000000 1.000000 0.000000
vn 0.000000 1.000000 0.000000
vn 0.000000 1.000000 0.000000
vn 0.000000 1.000000 0.000000
vn 0.000000 1.000000 0.000000
vn 0.000000 1.000000 0.000000
vn 0.000000 1.000000 0.000000
vn 0.000000 1.000000 0.000000
vn 0.000000 1.000000 0.000000
vn 0.000000 1.000000 0.000000
vn 0.000000 1.000000 0.000000
vn 0.000000 1.000000 0.000000
vn 0.000000 1.000000 0.000000
vn 0.000000 1.000000 0.000000
vn -0.634221 -0.275650 0.722344
vn -0.634221 -0.275650 0.722344
vn -0.634221 -0.275650 0.722344
vn -0.634221 -0.275650 0.722344
vn -0.634221 -0.275650 0.722344
vn -0.634221 -0.275650 0.722344
vn -0.915134 -0.335409 0.223675
vn -0.915134 -0.335409 0.223675
vn -0.915134 -0.335409 0.223675
vn -0.915134 -0.335409 0.223675
vn -0.915134 -0.335409 0.223675
vn -0.915134 -0.335409 0.223675
vn 0.000000 -1.000000 0.000000
vn 0.000000 -1.000000 0.000000
vn 0.000000 -1.000000 0.000000
vn 0.000000 -1.000000 0.000000
vn 0.000000 -1.000000 0.000000
vn 0.000000 -1.000000 0.000000
vn 0.000000 -1.000000 0.000000
vn 0.000000 -1.000000 0.000000
vn 0.000000 -1.000000 0.000000
vn 0.000000 -1.000000 0.000000
vn 0.000000 -1.000000 0.000000
vn 0.000000 -1.000000 0.000000
vn 0.000000 -1.000000 0.000000
vn 0.000000 -1.000000 0.000000
vn 0.000000 -1.000000 0.000000
vn 0.992168 0.000000 0.124910
vn 0.992168 0.000000 0.124910
vn 0.992168 0.000000 0.124910
vn 0.992168 0.000000 0.124910
vn 0.992168 0.000000 0.124910
vn 0.992168 0.000000 0.124910
vn 0.569153 0.000000 -0.822232
vn 0.569153 0.000000 -0.822232
vn 0.569153 0.000000 -0.822232
vn 0.569153 0.000000 -0.822232
vn 0.569153 0.000000 -0.822232
vn 0.569153 0.000000 -0.822232
s off
g liz_icesheet_UVs:g_18
usemtl liz_icesheet_UVs:initialShadingGroup
f 96/244/469 97/245/470 95/246/471
f 95/246/472 97/245/473 98/247/474
f 95/248/475 98/249/476 100/250/477
f 100/250/478 98/249/479 99/251/480
f 102/252/481 103/253/482 101/254/483
f 101/254/484 103/253/485 104/255/486
f 101/256/487 106/257/488 102/258/489
f 106/257/490 99/259/491 102/258/492
f 99/259/493 98/260/494 102/258/495
f 102/258/496 98/260/497 105/261/498
f 98/260/499 97/262/500 105/261/501
f 107/263/502 103/264/503 105/265/504
f 105/265/505 103/264/506 102/266/507
f 96/244/508 107/263/509 97/245/510
f 97/245/511 107/263/512 105/265/513
f 104/267/514 103/268/515 108/269/516
f 108/269/517 103/268/518 100/270/519
f 103/268/520 107/271/521 100/270/522
f 100/270/523 107/271/524 95/272/525
f 107/271/526 96/273/527 95/272/528
f 101/274/529 104/275/530 106/276/531
f 106/276/532 104/275/533 108/277/534
f 99/278/535 106/276/536 100/279/537
f 100/279/538 106/276/539 108/277/540
g default
v -0.162149 -1.000000 9.667419
v -0.244471 -0.385108 10.000000
v -0.910780 1.000000 10.000000
v -2.068383 1.000000 8.196518
v -1.596328 -1.000000 7.433050
v 0.231235 1.000000 10.000000
v 2.105971 -1.000000 7.097308
v 2.179077 1.000000 7.792811
v -0.813049 -1.000000 6.166233
v -0.329267 1.000000 5.383801
v 1.965061 1.000000 5.756742
v 2.057144 -1.000000 6.632782
vt 0.082426 0.944561
vt 0.086758 0.879015
vt 0.136325 0.938514
vt 0.103518 0.874286
vt 0.139821 0.885609
vt 0.135710 0.857655
vt 0.354706 0.800266
vt 0.404206 0.817514
vt 0.345388 0.884560
vt 0.360176 0.893757
vt 0.396205 0.889905
vt 0.466137 0.794419
vt 0.414589 0.776836
vt 0.478178 0.723491
vt 0.424213 0.720138
vt 0.659701 0.114748
vt 0.602937 0.123975
vt 0.664996 0.064374
vt 0.559910 0.054385
vt 0.616805 0.009766
vt 0.588550 0.009766
vt 0.469903 0.831076
vt 0.422950 0.858224
vt 0.314370 0.769510
vt 0.259089 0.804992
vt 0.250785 0.713393
vt 0.239292 0.714601
vt 0.227747 0.785612
vt 0.354693 0.788710
vt 0.404151 0.766862
vn -0.780058 -0.375248 0.500697
vn -0.780058 -0.375248 0.500697
vn -0.780058 -0.375248 0.500697
vn -0.780058 -0.375249 0.500697
vn -0.780058 -0.375249 0.500697
vn -0.780058 -0.375249 0.500697
vn -0.780058 -0.375249 0.500697
vn -0.780059 -0.375248 0.500697
vn -0.780058 -0.375249 0.500697
vn 0.000000 0.000000 1.000000
vn 0.000000 0.000000 1.000000
vn 0.000000 0.000000 1.000000
vn 0.726096 -0.249373 0.640779
vn 0.726096 -0.249373 0.640779
vn 0.726096 -0.249373 0.640779
vn 0.726096 -0.249373 0.640779
vn 0.726096 -0.249373 0.640779
vn 0.726096 -0.249373 0.640779
vn 0.726096 -0.249373 0.640779
vn 0.726096 -0.249373 0.640779
vn 0.726096 -0.249373 0.640779
vn 0.147664 -0.391108 -0.908422
vn 0.147663 -0.391108 -0.908422
vn 0.147664 -0.391108 -0.908422
vn 0.147664 -0.391108 -0.908422
vn 0.147663 -0.391108 -0.908422
vn 0.147663 -0.391108 -0.908422
vn 0.000000 1.000000 0.000000
vn 0.000000 1.000000 0.000000
vn 0.000000 1.000000 0.000000
vn 0.000000 1.000000 0.000000
vn 0.000000 1.000000 0.000000
vn 0.000000 1.000000 0.000000
vn 0.000000 1.000000 0.000000
vn 0.000000 1.000000 0.000000
vn 0.000000 1.000000 0.000000
vn 0.000000 1.000000 0.000000
vn 0.000000 1.000000 0.000000
vn 0.000000 1.000000 0.000000
vn -0.850548 0.000000 -0.525898
vn -0.850548 0.000000 -0.525898
vn -0.850548 0.000000 -0.525898
vn -0.850548 0.000000 -0.525898
vn -0.850548 0.000000 -0.525898
vn -0.850548 0.000000 -0.525898
vn 0.000000 -1.000000 0.000000
vn 0.000000 -1.000000 0.000000
vn 0.000000 -1.000000 0.000000
vn 0.000000 -1.000000 0.000000
vn 0.000000 -1.000000 0.000000
vn 0.000000 -1.000000 0.000000
vn 0.000000 -1.000000 0.000000
vn 0.000000 -1.000000 0.000000
vn 0.000000 -1.000000 0.000000
vn 0.994521 0.000000 -0.104536
vn 0.994521 0.000000 -0.104536
vn 0.994521 0.000000 -0.104536
vn 0.994521 0.000000 -0.104536
vn 0.994521 0.000000 -0.104536
vn 0.994521 0.000000 -0.104536
s off
g liz_icesheet_UVs:g_20
usemtl liz_icesheet_UVs:initialShadingGroup
f 113/280/541 109/281/542 112/282/543
f 109/281/544 110/283/545 112/282/546
f 110/283/547 111/284/548 112/282/549
f 110/283/550 114/285/551 111/284/552
f 115/286/553 116/287/554 109/288/555
f 109/288/556 116/287/557 110/289/558
f 110/289/559 116/287/560 114/290/561
f 117/291/562 118/292/563 120/293/564
f 120/293/565 118/292/566 119/294/567
f 119/295/568 118/296/569 116/297/570
f 118/296/571 112/298/572 116/297/573
f 116/297/574 112/298/575 114/299/576
f 112/298/577 111/300/578 114/299/579
f 113/301/580 112/302/581 117/291/582
f 117/291/583 112/302/584 118/292/585
f 109/303/586 113/304/587 115/305/588
f 115/305/589 113/304/590 120/306/591
f 120/306/592 113/304/593 117/307/594
f 115/286/595 120/308/596 116/287/597
f 116/287/598 120/308/599 119/309/600
g default
v 7.274964 1.000000 8.447227
v 3.787293 1.000000 9.012651
v 3.562224 -1.000000 8.168483
v 6.800623 -1.000000 7.643470
v 6.815757 -1.000000 7.258179
v 2.445614 -1.000000 7.076094
v 2.390503 -1.000000 6.551793
v 3.030116 -1.000000 5.974768
v 7.329542 0.885418 6.319864
v 7.356778 1.000000 6.364365
v 3.208171 1.000000 4.855024
v 2.298421 1.000000 5.675755
v 2.518720 1.000000 7.771597
v 7.277328 1.000000 6.234553
vt 0.960455 0.009766
vt 0.959879 0.097179
vt 0.906447 0.017812
vt 0.905912 0.098978
vt 0.559674 0.789391
vt 0.572664 0.869512
vt 0.550142 0.789016
vt 0.545637 0.897138
vt 0.532666 0.898501
vt 0.518389 0.882677
vt 0.989342 0.396753
vt 0.987269 0.448283
vt 0.986464 0.395563
vt 0.937053 0.426837
vt 0.937436 0.417305
vt 0.144855 0.596682
vt 0.196387 0.594658
vt 0.130867 0.682971
vt 0.199599 0.596624
vt 0.233730 0.697298
vt 0.161572 0.714356
vt 0.213425 0.719806
vt 0.889316 0.009766
vt 0.893061 0.053513
vt 0.840388 0.032607
vt 0.843684 0.071114
vt 0.843763 0.084157
vt 0.893376 0.105651
vt 0.826332 0.841300
vt 0.837393 0.735574
vt 0.883199 0.842501
vt 0.840820 0.734021
vt 0.893489 0.744141
vt 0.840172 0.105165
vt 0.888268 0.135531
vt 0.989210 0.392990
vn 0.146767 -0.398627 0.905294
vn 0.146767 -0.398627 0.905293
vn 0.146767 -0.398627 0.905293
vn 0.146767 -0.398627 0.905293
vn 0.146767 -0.398627 0.905294
vn 0.146767 -0.398627 0.905294
vn 0.000000 -1.000000 0.000000
vn 0.000000 -1.000000 0.000000
vn 0.000000 -1.000000 0.000000
vn 0.000000 -1.000000 0.000000
vn 0.000000 -1.000000 0.000000
vn 0.000000 -1.000000 0.000000
vn 0.000000 -1.000000 0.000000
vn 0.000000 -1.000000 0.000000
vn 0.000000 -1.000000 0.000000
vn 0.000000 -1.000000 0.000000
vn 0.000000 -1.000000 0.000000
vn 0.000000 -1.000000 0.000000
vn 0.968762 -0.245056 0.038053
vn 0.968762 -0.245054 0.038053
vn 0.968762 -0.245055 0.038051
vn 0.968762 -0.245055 0.038053
vn 0.968762 -0.245054 0.038053
vn 0.968762 -0.245054 0.038053
vn 0.968762 -0.245054 0.038053
vn 0.968762 -0.245055 0.038051
vn 0.968762 -0.245054 0.038053
vn 0.000000 1.000000 0.000000
vn 0.000000 1.000000 0.000000
vn 0.000000 1.000000 0.000000
vn 0.000000 1.000000 0.000000
vn 0.000000 1.000000 0.000000
vn 0.000000 1.000000 0.000000
vn 0.000000 1.000000 0.000000
vn 0.000000 1.000000 0.000000
vn 0.000000 1.000000 0.000000
vn 0.000000 1.000000 0.000000
vn 0.000000 1.000000 0.000000
vn 0.000000 1.000000 0.000000
vn 0.000000 1.000000 0.000000
vn 0.000000 1.000000 0.000000
vn 0.000000 1.000000 0.000000
vn -0.682543 -0.217669 0.697678
vn -0.682543 -0.217670 0.697678
vn -0.682544 -0.217669 0.697678
vn -0.682544 -0.217669 0.697678
vn -0.682543 -0.217670 0.697678
vn -0.682544 -0.217670 0.697678
vn -0.994521 0.000000 0.104536
vn -0.994521 0.000000 0.104536
vn -0.994521 0.000000 0.104536
vn -0.994521 0.000000 0.104536
vn -0.994521 0.000000 0.104536
vn -0.994521 0.000000 0.104536
vn 0.280278 -0.487815 -0.826729
vn 0.280279 -0.487813 -0.826730
vn 0.280278 -0.487815 -0.826729
vn 0.280279 -0.487813 -0.826730
vn 0.280275 -0.487815 -0.826730
vn 0.280278 -0.487815 -0.826729
vn 0.280278 -0.487815 -0.826729
vn 0.280275 -0.487815 -0.826730
vn 0.280278 -0.487815 -0.826729
vn -0.631036 -0.335440 -0.699481
vn -0.631036 -0.335440 -0.699481
vn -0.631036 -0.335440 -0.699481
vn -0.631036 -0.335440 -0.699481
vn -0.631036 -0.335440 -0.699481
vn -0.631036 -0.335440 -0.699481
vn 0.852930 0.000000 -0.522026
vn 0.852930 0.000000 -0.522026
vn 0.852930 0.000000 -0.522026
s off
g liz_icesheet_UVs:g_21
usemtl liz_icesheet_UVs:initialShadingGroup
f 121/310/601 122/311/602 124/312/603
f 124/312/604 122/311/605 123/313/606
f 124/314/607 123/315/608 125/316/609
f 123/315/610 126/317/611 125/316/612
f 126/317/613 127/318/614 125/316/615
f 125/316/616 127/318/617 128/319/618
f 130/320/619 121/321/620 129/322/621
f 124/323/622 125/324/623 121/321/624
f 125/324/625 129/322/626 121/321/627
f 121/325/628 130/326/629 122/327/630
f 130/326/631 134/328/632 122/327/633
f 134/328/634 131/329/635 122/327/636
f 122/327/637 131/329/638 133/330/639
f 131/329/640 132/331/641 133/330/642
f 122/332/643 133/333/644 123/334/645
f 123/334/646 133/333/647 126/335/648
f 126/335/649 133/333/650 127/336/651
f 127/336/652 133/333/653 132/337/654
f 131/338/655 134/339/656 128/340/657
f 134/339/658 129/341/659 128/340/660
f 128/340/661 129/341/662 125/342/663
f 127/336/664 132/337/665 128/343/666
f 128/343/667 132/337/668 131/344/669
f 130/320/670 129/322/671 134/345/672
g default
v 4.725703 -1.000000 -7.106449
v 4.059673 -1.000000 -3.784418
v 4.059674 1.000000 -3.784419
v 4.773969 1.000000 -7.347186
v 7.220740 1.000000 -2.748346
v 8.296195 1.000000 -3.830921
v 8.463767 1.000000 -7.551817
v 7.782882 1.000000 -8.116763
v 7.243755 -1.000000 -7.750481
v 6.813200 -1.000000 -2.881921
v 7.363292 -1.000000 -7.651298
v 7.164423 -1.000000 -3.235470
vt 0.926937 0.192847
vt 0.976419 0.193003
vt 0.926672 0.276672
vt 0.976135 0.282903
vt 0.009766 0.576495
vt 0.087973 0.550861
vt 0.027438 0.664641
vt 0.114581 0.577645
vt 0.118727 0.669704
vt 0.101882 0.683681
vt 0.302973 0.990234
vt 0.253155 0.988371
vt 0.301980 0.925938
vt 0.251967 0.911541
vt 0.370519 0.906166
vt 0.371509 0.988462
vt 0.321168 0.917372
vt 0.322030 0.989057
vt 0.663711 0.756679
vt 0.680188 0.674488
vt 0.731836 0.779007
vt 0.740525 0.770259
vt 0.745444 0.661008
vt 0.742487 0.658554
vt 0.828113 0.030087
vt 0.771605 0.028446
vt 0.819977 0.009766
vt 0.770177 0.024879
vt 0.827449 0.122236
vt 0.770818 0.137806
vt 0.817325 0.158607
vt 0.767511 0.149684
vn -0.980488 0.000001 -0.196577
vn -0.980488 0.000001 -0.196577
vn -0.980488 0.000001 -0.196577
vn -0.980488 0.000000 -0.196577
vn -0.980488 0.000000 -0.196577
vn -0.980488 0.000000 -0.196577
vn 0.000000 1.000000 0.000000
vn 0.000000 1.000000 0.000000
vn 0.000000 1.000000 0.000000
vn 0.000000 1.000000 0.000000
vn 0.000000 1.000000 0.000000
vn 0.000000 1.000000 0.000000
vn 0.000000 1.000000 0.000000
vn 0.000000 1.000000 0.000000
vn 0.000000 1.000000 0.000000
vn 0.000000 1.000000 0.000000
vn 0.000000 1.000000 0.000000
vn 0.000000 1.000000 0.000000
vn -0.246287 -0.109964 -0.962939
vn -0.246287 -0.109964 -0.962939
vn -0.246287 -0.109964 -0.962939
vn -0.246287 -0.109964 -0.962939
vn -0.246287 -0.109964 -0.962939
vn -0.246287 -0.109964 -0.962939
vn -0.311458 0.000000 0.950260
vn -0.311458 0.000000 0.950260
vn -0.311458 0.000000 0.950260
vn -0.311458 0.000000 0.950260
vn -0.311458 0.000000 0.950260
vn -0.311458 0.000000 0.950260
vn 0.000000 -1.000000 0.000000
vn 0.000000 -1.000000 0.000000
vn 0.000000 -1.000000 0.000000
vn 0.000000 -1.000000 0.000000
vn 0.000000 -1.000000 0.000000
vn 0.000000 -1.000000 0.000000
vn 0.000000 -1.000000 0.000000
vn 0.000000 -1.000000 0.000000
vn 0.000000 -1.000000 0.000000
vn 0.000000 -1.000000 0.000000
vn 0.000000 -1.000000 0.000000
vn 0.000000 -1.000000 0.000000
vn 0.609378 -0.298771 -0.734435
vn 0.609377 -0.298771 -0.734436
vn 0.609378 -0.298771 -0.734435
vn 0.609378 -0.298771 -0.734435
vn 0.609377 -0.298771 -0.734436
vn 0.609377 -0.298771 -0.734436
vn 0.874619 -0.483208 0.039389
vn 0.874619 -0.483208 0.039389
vn 0.874619 -0.483208 0.039389
vn 0.874619 -0.483208 0.039389
vn 0.874619 -0.483208 0.039389
vn 0.874619 -0.483208 0.039389
vn 0.696758 -0.188207 0.692175
vn 0.696758 -0.188207 0.692175
vn 0.696758 -0.188207 0.692175
vn 0.696758 -0.188207 0.692175
vn 0.696758 -0.188207 0.692175
vn 0.696758 -0.188207 0.692175
s off
g liz_icesheet_UVs:g_25
usemtl liz_icesheet_UVs:initialShadingGroup
f 136/346/673 137/347/674 135/348/675
f 135/348/676 137/347/677 138/349/678
f 137/350/679 139/351/680 138/352/681
f 139/351/682 140/353/683 138/352/684
f 140/353/685 141/354/686 138/352/687
f 138/352/688 141/354/689 142/355/690
f 135/356/691 138/357/692 143/358/693
f 143/358/694 138/357/695 142/359/696
f 139/360/697 137/361/698 144/362/699
f 144/362/700 137/361/701 136/363/702
f 136/364/703 135/365/704 144/366/705
f 144/366/706 135/365/707 146/367/708
f 146/367/709 135/365/710 145/368/711
f 143/369/712 145/368/713 135/365/714
f 141/370/715 145/371/716 142/372/717
f 142/372/718 145/371/719 143/373/720
f 141/370/721 140/374/722 145/371/723
f 145/371/724 140/374/725 146/375/726
f 140/374/727 139/376/728 146/375/729
f 146/375/730 139/376/731 144/377/732
g default
v -2.079384 1.000000 2.213993
v -0.295348 1.000000 5.015038
v 2.066454 1.000000 5.398948
v 3.022186 1.000000 4.536735
v 3.348058 1.000000 2.487425
v 1.661048 1.000000 0.979828
v -2.155752 0.875988 2.189703
v -2.099502 -1.000000 3.724406
v -0.779130 -1.000000 5.797471
v 2.158536 -1.000000 6.274987
v 2.844130 -1.000000 5.656479
v 3.477041 -1.000000 1.676290
v -2.182864 -1.000000 1.450013
v 1.765882 -1.000000 0.147114
vt 0.593728 0.665938
vt 0.524428 0.621800
vt 0.624263 0.573397
vt 0.514929 0.563366
vt 0.536261 0.539721
vt 0.586963 0.531658
vt 0.648823 0.765010
vt 0.700093 0.783391
vt 0.639044 0.825028
vt 0.686880 0.864485
vt 0.683358 0.865453
vt 0.205655 0.920086
vt 0.205425 0.979286
vt 0.151914 0.914151
vt 0.151627 0.987785
vt 0.727480 0.085012
vt 0.728642 0.136338
vt 0.677551 0.065817
vt 0.679808 0.165503
vt 0.733228 0.167852
vt 0.683098 0.188109
vt 0.636030 0.881255
vt 0.333678 0.800995
vt 0.329205 0.903774
vt 0.280425 0.807604
vt 0.276188 0.904961
vt 0.279396 0.906708
vt 0.213907 0.192437
vt 0.311603 0.160202
vt 0.215969 0.248707
vt 0.353938 0.198035
vt 0.338279 0.296509
vt 0.321317 0.311811
vt 0.248636 0.299997
vt 0.736400 0.029751
vt 0.686599 0.009766
vn 0.000000 1.000000 0.000000
vn 0.000000 1.000000 0.000000
vn 0.000000 1.000000 0.000000
vn 0.000000 1.000000 0.000000
vn 0.000000 1.000000 0.000000
vn 0.000000 1.000000 0.000000
vn 0.000000 1.000000 0.000000
vn 0.000000 1.000000 0.000000
vn 0.000000 1.000000 0.000000
vn 0.000000 1.000000 0.000000
vn 0.000000 1.000000 0.000000
vn 0.000000 1.000000 0.000000
vn -0.779253 0.382663 0.496320
vn -0.779253 0.382663 0.496320
vn -0.779253 0.382663 0.496320
vn -0.779253 0.382663 0.496320
vn -0.779253 0.382663 0.496321
vn -0.779253 0.382663 0.496320
vn -0.779253 0.382663 0.496321
vn -0.779253 0.382663 0.496320
vn -0.779253 0.382663 0.496320
vn -0.147663 0.391108 0.908422
vn -0.147663 0.391108 0.908422
vn -0.147663 0.391108 0.908422
vn -0.147663 0.391108 0.908422
vn -0.147663 0.391108 0.908422
vn -0.147663 0.391108 0.908422
vn 0.987592 -0.000000 0.157042
vn 0.987592 0.000000 0.157042
vn 0.987592 -0.000000 0.157042
vn 0.987592 -0.000000 0.157042
vn 0.987592 0.000000 0.157042
vn 0.987592 -0.000000 0.157042
vn 0.631036 0.335440 0.699481
vn 0.631036 0.335440 0.699481
vn 0.631036 0.335440 0.699481
vn 0.631036 0.335440 0.699481
vn 0.631036 0.335440 0.699481
vn 0.631036 0.335440 0.699481
vn -0.999329 0.000000 0.036628
vn -0.999329 0.000000 0.036628
vn -0.999329 0.000000 0.036628
vn -0.293003 0.354373 -0.888014
vn -0.293003 0.354373 -0.888014
vn -0.293003 0.354373 -0.888014
vn -0.293003 0.354372 -0.888014
vn -0.293003 0.354373 -0.888014
vn -0.293003 0.354373 -0.888014
vn -0.293003 0.354373 -0.888014
vn -0.293003 0.354373 -0.888014
vn -0.293003 0.354373 -0.888014
vn 0.000000 -1.000000 0.000000
vn 0.000000 -1.000000 0.000000
vn 0.000000 -1.000000 0.000000
vn 0.000000 -1.000000 0.000000
vn 0.000000 -1.000000 0.000000
vn 0.000000 -1.000000 0.000000
vn 0.000000 -1.000000 0.000000
vn 0.000000 -1.000000 0.000000
vn 0.000000 -1.000000 0.000000
vn 0.000000 -1.000000 0.000000
vn 0.000000 -1.000000 0.000000
vn 0.000000 -1.000000 0.000000
vn 0.000000 -1.000000 0.000000
vn 0.000000 -1.000000 0.000000
vn 0.000000 -1.000000 0.000000
vn 0.629836 0.326459 -0.704791
vn 0.629836 0.326459 -0.704791
vn 0.629836 0.326459 -0.704791
vn 0.629836 0.326459 -0.704791
vn 0.629836 0.326459 -0.704791
vn 0.629836 0.326459 -0.704791
s off
g liz_icesheet_UVs:g_26
usemtl liz_icesheet_UVs:initialShadingGroup
f 147/378/733 148/379/734 152/380/735
f 148/379/736 149/381/737 152/380/738
f 149/381/739 150/382/740 152/380/741
f 150/382/742 151/383/743 152/380/744
f 155/384/745 148/385/746 154/386/747
f 147/387/748 153/388/749 148/385/750
f 153/388/751 154/386/752 148/385/753
f 149/389/754 148/390/755 156/391/756
f 156/391/757 148/390/758 155/392/759
f 151/393/760 150/394/761 158/395/762
f 158/395/763 150/394/764 157/396/765
f 150/394/766 149/397/767 157/396/768
f 157/396/769 149/397/770 156/398/771
f 154/386/772 153/388/773 159/399/774
f 160/400/775 159/401/776 152/402/777
f 147/403/778 152/402/779 153/404/780
f 159/401/781 153/404/782 152/402/783
f 159/405/784 160/406/785 154/407/786
f 160/406/787 158/408/788 154/407/789
f 158/408/790 157/409/791 154/407/792
f 157/409/793 156/410/794 154/407/795
f 156/410/796 155/411/797 154/407/798
f 151/393/799 158/395/800 152/412/801
f 152/412/802 158/395/803 160/413/804
