%YAML 1.1
%TAG !u! tag:unity3d.com,2011:
--- !u!21 &2100000
Material:
  serializedVersion: 6
  m_ObjectHideFlags: 0
  m_CorrespondingSourceObject: {fileID: 0}
  m_PrefabInstance: {fileID: 0}
  m_PrefabAsset: {fileID: 0}
  m_Name: water ocean
  m_Shader: {fileID: 4800000, guid: 585366621acbcfc43805e78785fb85b8, type: 3}
  m_ShaderKeywords: GEOM_TYPE_BRANCH GEOM_TYPE_BRANCH_DETAIL GEOM_TYPE_FROND GEOM_TYPE_LEAF
    LUX_WATER_REFLECTIVE _GERSTNERDISPLACEMENT _PIXELSNAP_POINT _SNAPPING _WORLDSPACEMAPPINGENABLED_ON
  m_LightmapFlags: 4
  m_EnableInstancingVariants: 0
  m_DoubleSidedGI: 0
  m_CustomRenderQueue: -1
  stringTagMap: {}
  disabledShaderPasses: []
  m_SavedProperties:
    serializedVersion: 3
    m_TexEnvs:
    - _BumpMap:
        m_Texture: {fileID: 2800000, guid: 7e6b97895101b5e439b8b80bef080be7, type: 3}
        m_Scale: {x: 1, y: 1}
        m_Offset: {x: 0, y: 0}
    - _CausticTex:
        m_Texture: {fileID: 2800000, guid: 8e84949c077024a94a7f50a403373768, type: 3}
        m_Scale: {x: 1, y: 1}
        m_Offset: {x: 0, y: 0}
    - _LuxWater_ReflectionTex:
        m_Texture: {fileID: 0}
        m_Scale: {x: 1, y: 1}
        m_Offset: {x: 0, y: 0}
    - _MainTex:
        m_Texture: {fileID: 2800000, guid: 17c5930d7db244afb8decf6ebdc6894b, type: 3}
        m_Scale: {x: 25.7, y: 36.4}
        m_Offset: {x: 0, y: 0}
    m_Floats:
    - _AbsorbptionDepth: 0.01
    - _AbsorbptionScale: 1.44
    - _AbsorbtionColorStrength: 0.98
    - _AbsorbtionHeight: 0
    - _AbsorbtionStrength: 1
    - _AbsorptionColorStrength: 1
    - _AbsorptionDepth: 0.025
    - _AbsorptionHeight: 0
    - _AbsorptionMaxHeight: 50
    - _AbsorptionStrength: 0.946
    - _BaseUVScale: 0.1
    - _BumpParallax: 0.3
    - _CausticMode: 1
    - _CausticsEnabled: 1
    - _CausticsMaxDepth: 38
    - _CausticsScale: 5.69
    - _CausticsSelfDistortion: 0.2
    - _CausticsSpeed: 2.5
    - _CausticsTiling: 0.17
    - _Culling: 0
    - _DeepFoamBlur: 2
    - _DeepFoamCoverage: 1.46
    - _DeepFoamOpacity: 0.484
    - _DeepFoamTiling: 0.38
    - _Density: 0.34
    - _DensityDepth: 0.01
    - _DepthAtten: 2.12
    - _DetailDistance: 800
    - _DetailFadeRange: 500
    - _FinalFogDensity: 0
    - _FoamCaps: 0.38
    - _FoamCapsSharpness: 0
    - _FoamEnabled: 1
    - _FoamNormalMaskScale: 0.5
    - _FoamNormalScale: 0.13
    - _FoamParallax: 0.03
    - _FoamScale: 8
    - _FoamSmoothness: 0.5
    - _FoamSoftIntersectionFactor: 0.09
    - _FoamSpeed: -1.4
    - _FoamTiling: 1.25
    - _FoamTranslucencyIntensity: 1
    - _FogAbsorptionCancellation: 0.97
    - _FresbnelFactor: 5
    - _FresnelPower: 5
    - _GGlobalFrequency: 0.02
    - _GGlobalRotation: 85
    - _GGlobalSpeed: 0.7
    - _GerstnerElevationFactor: 0
    - _GerstnerEnabled: 1
    - _GerstnerIntensity: 0.1
    - _GerstnerNormalIntensity: 2
    - _GerstnerPlanarNormalIntensity: 0.08
    - _GerstnerVertexIntensity: 0.2
    - _GerstnerVerticalIntensity: 0.148
    - _Glossiness: 0.89
    - _HeightBasedScatteringMax: 7.2
    - _HeightBasedScatteringPower: 1.62
    - _Help: 0
    - _HorizonOcclusion: 0
    - _InvFade: 0.25
    - _InvFadeParameter: 0.56
    - _LuxWater_EdgeLength: 11
    - _LuxWater_Extrusion: 0.2
    - _LuxWater_MeshScale: 1
    - _LuxWater_Phong: 1
    - _LuxWater_ReflectionTexMip: 10
    - _MaxDirLightDepth: 28
    - _MaxFogLightDepth: 64
    - _Metallic: 0
    - _OrthoDepthCorrection: 0
    - _OrthoSpport: 0
    - _PixelSnap: 1
    - _PixelSnapping: 1
    - _PlanarEnabled: 0
    - _PlaneReflectionBumpClamp: 0.05
    - _PlaneReflectionBumpScale: 0.4
    - _PlaneReflectionIntensityScale: 1
    - _ReflectionBumpScale: 0.3
    - _ReflectionGeoScale: 0.76
    - _ReflectionGlossiness: 0.95
    - _ReflectionSmoothing: 1
    - _ReflectionStrength: 0.8
    - _Refraction: 192
    - _ScatterOcclusion: 0.038
    - _ScatteringNormalInfluence: 0.221
    - _ScatteringPower: 12
    - _Tess: 1.3
    - _TessMaxDisp: 2
    - _TranslucencyIntensity: 0.45
    - _TrnaslucencyIntensity: 4
    - _UVSpaceMappingEnabled: 0
    - _UnderwaterFoamParallax: 0.07
    - _UnderwaterScatteringIntensity: 3
    - _UnderwaterScatteringPower: 1.5
    - _UsesWaterVolume: 1
    - _WaterIOR: 1.333
    - _WaterSurfaceYPos: 136.75
    - _WorldSpaceMappingEnabled: 1
    - _ZTest: 4
    - _ZWrite: 1
    m_Colors:
    - _BumpParams: {r: 0.88, g: 0.5, b: 4.1, a: 0.2}
    - _BumpRotation: {r: 0, g: 21, b: 1.89, a: 23}
    - _BumpScale: {r: -0.4, g: -0.26, b: -0.2, a: 0}
    - _BumpSpeed: {r: 4.08, g: -8.5, b: 2.1, a: -0.26}
    - _BumpSpeedXXX: {r: 1.7, g: 1, b: 0, a: 0}
    - _BumpTiling: {r: 0.04, g: 0.12, b: 0.31, a: 1}
    - _Color: {r: 0.5882352, g: 0.5786898, b: 0.4498269, a: 1}
    - _DeepFoamColor: {r: 0.9264706, g: 0.9878296, b: 1, a: 0.484}
    - _DepthAtten: {r: 0, g: 24, b: 0, a: 0}
    - _FarBumpSampleParams: {r: 0.09, g: 300, b: 0.5, a: 0.5}
    - _FinalBumpRotation: {r: 2155.8538, g: 3.7999985, b: 118.79876, a: 118.79876}
    - _FinalBumpSpeed01: {r: -0.9764715, g: 0.41448757, b: 1.589741, a: -1.535195}
    - _FinalBumpSpeed23: {r: -0.4952861, g: 0.22979908, b: 0, a: 0}
    - _FoamCapsContrast: {r: 0, g: 0.99999994, b: 0, a: 0}
    - _FoamColor: {r: 1, g: 1, b: 1, a: 1}
    - _GAmplitude: {r: 2, g: 2.61, b: 2.16, a: 3.2}
    - _GDirectionAB: {r: 0.48175365, g: -0.8763067, b: 0.18686694, a: -0.9823852}
    - _GDirectionCD: {r: -0.25375783, g: -0.9672677, b: -0.8729222, a: -0.4878596}
    - _GFinalFrequency: {r: 0.144, g: 0.18879999, b: 0.17799999, a: 0.086}
    - _GFinalSpeed: {r: 0.7, g: 0.97999996, b: 0.84000003, a: 0.77}
    - _GFrequency: {r: 7.2, g: 9.44, b: 8.9, a: 4.3}
    - _GRotation: {r: -23.8, g: -5.77, b: 19.7, a: 65.8}
    - _GSpeed: {r: 1, g: 1.4, b: 1.2, a: 1.1}
    - _GSteepness: {r: 1.5, g: 1.5, b: 2.5, a: 2.5}
    - _GerstnerSecondaryWaves: {r: 0.26, g: 3.97, b: 1.25, a: 2.3}
    - _GerstnerVertexIntensity: {r: 0.15, g: 0.175, b: 0.15, a: 0}
    - _SpecColor: {r: 0.07058821, g: 0.07058821, b: 0.07058821, a: 1}
    - _Speed: {r: 1.23, g: -1.49, b: 0.6, a: 0}
    - _TranslucencyColor: {r: 0.36725235, g: 0.614, b: 0.56522435, a: 1}
    - _UnderWaterReflCol: {r: 0.6251192, g: 0.75248003, b: 0.79454404, a: 1}
    - _UpperColor: {r: 0, g: 0, b: 0, a: 1}
